#
# mtl file for arbol2.obj obj file
#

newmtl world/kalimdor/ashenvale/passivedoodads/ashenvaletrees/ashenvaletree05.m2_Geoset_000
illum 2
Kd 1.000000 1.000000 1.000000
Ka 0.250000 0.250000 0.250000
Ks 0.000000 0.000000 0.000000
Ke 0.000000 0.000000 0.000000
Ns 0.000000
map_Kd arbol2_ashenvalemidtree02trunk.png
newmtl world/kalimdor/ashenvale/passivedoodads/ashenvaletrees/ashenvaletree05.m2_Geoset_001_Dbl
illum 2
Kd 1.000000 1.000000 1.000000
Ka 0.250000 0.250000 0.250000
Ks 0.000000 0.000000 0.000000
Ke 0.000000 0.000000 0.000000
Ns 0.000000
map_Kd arbol2_moonglademidtree01_white.png
